{
 "name": "COMS 3203 - Discrete Math Homework",
 "children": [
  {
   "title": "Introduction",
   "id": "05ea8724-94c6-2b05-bef5-53d02d6b6dd9",
   "type": "page",
   "pageId": "bbc379d0-09ae-986f-04d4-ba641d01436e"
  },
  {
   "title": "HW01 - Latex & Codio",
   "id": "cde883a6-18be-0e28-edd0-f59c5dc29b6e",
   "type": "chapter",
   "children": [
    {
     "title": "Overview & Examples",
     "id": "36b35e3b-c009-fb46-6f0b-12bf5f5c8157",
     "type": "section",
     "children": [
      {
       "title": "About Latex and Mathjax",
       "id": "70efe88a-2020-5a71-6fe7-520e8894dd0d",
       "type": "page",
       "pageId": "aaf4eb24-d27e-a07c-7bf2-eaa378a714eb"
      },
      {
       "title": "About Markdown",
       "id": "0bc94de5-a737-b204-75c2-715fbac1d949",
       "type": "page",
       "pageId": "a3896e41-601e-cf11-ba92-0fe486debefa"
      },
      {
       "title": "Basic Examples",
       "id": "ecd0ef3b-2822-ceab-510b-6e48bf177e05",
       "type": "page",
       "pageId": "e810243b-f135-0d31-366a-7a67247f9783"
      },
      {
       "title": "Tables",
       "id": "e2ee785b-afaa-f91a-c2fc-67354dad36b4",
       "type": "page",
       "pageId": "b49affff-0d1d-5b72-3b81-ca358baac0d1"
      },
      {
       "title": "Fonts, line breaks and spacing",
       "id": "4f9f7dde-a1fb-fe26-79e1-3ebaac9bedeb",
       "type": "page",
       "pageId": "c11a0943-e94e-7d85-db09-f27269aa40c4"
      },
      {
       "title": "Reference materials",
       "id": "4284fa1c-2575-82aa-4555-c770e689ca1f",
       "type": "page",
       "pageId": "8af84f4b-1dd9-9966-c155-a78b1c086fa0"
      },
      {
       "title": "Practice Area",
       "id": "902fdcdd-3832-b17f-6017-e4984363c6ab",
       "type": "page",
       "pageId": "1e2be360-e44d-2fa6-722a-de131cdc820d"
      }
     ]
    },
    {
     "title": "Challenges",
     "id": "b202b802-47c5-3947-7368-a441eec820e3",
     "type": "section",
     "pageId": "1275b67e-9c08-caea-bb23-080dc34c9d0a",
     "children": [
      {
       "title": "Instructions",
       "id": "1fd67798-b5ba-89f5-443f-8ae536c84fc5",
       "type": "page",
       "pageId": "682e126b-2338-35f1-eded-abb154df25e4"
      },
      {
       "title": "Pythagorean Triple",
       "id": "79b11aff-c873-7ac0-ec8e-880f13ab7604",
       "type": "page",
       "pageId": "e7ede6dc-514b-67bb-0119-64bb8f737ca2"
      },
      {
       "title": "Quadratic Formula",
       "id": "d1773c2c-91a2-0e0c-6fb2-586a11811623",
       "type": "page",
       "pageId": "b89988f1-8de4-e545-7af7-5e033c55977f"
      },
      {
       "title": "Sum, Product, Integral",
       "id": "15f47b45-2b4a-15c5-5975-8187a0a050ec",
       "type": "page",
       "pageId": "c7fcfa83-43c1-f5fd-030f-ef93f3dad6ae"
      },
      {
       "title": "Functions",
       "id": "adc36dea-89ec-f2fe-a059-4533abd27969",
       "type": "page",
       "pageId": "f7e0ec9e-f157-547c-a72e-62e3451f4fd2"
      },
      {
       "title": "Set Theory",
       "id": "ad5f5e47-66e6-0f34-85c6-9dd8a1391115",
       "type": "page",
       "pageId": "b11acf6a-5e7a-8c98-5bee-d08bc6403c3f"
      },
      {
       "title": "Boolean",
       "id": "e15a96d4-c40a-7ba3-b7d3-2270ae8c528a",
       "type": "page",
       "pageId": "2cb6f027-2498-3363-1870-5194b2727654"
      },
      {
       "title": "Integer Statements",
       "id": "65e1bfdf-36a9-a778-d3b7-1a1a42831eb6",
       "type": "page",
       "pageId": "fee36b26-0f53-0794-e981-eaa6d61a70da"
      },
      {
       "title": "Proof",
       "id": "e04c3100-d9b8-e49c-d44a-4f58410a6361",
       "type": "page",
       "pageId": "da429321-4632-dd56-0394-d863d2e85f87"
      },
      {
       "title": "Truth Table",
       "id": "5fd1f824-3d98-79bf-4496-1e3a30127fef",
       "type": "page",
       "pageId": "1a9b5284-0b85-5655-4b9d-3a8107a90983"
      }
     ]
    }
   ]
  },
  {
   "title": "HW02 - Logic",
   "id": "c764f043-8bbd-46df-b6ee-6658849c7625",
   "type": "chapter",
   "children": [
    {
     "title": "Instructions",
     "id": "5277f7ae-0c50-af50-f542-01f622ce3ca3",
     "type": "page",
     "pageId": "47564717-d6ce-003c-6a82-68bbb9ae9979"
    },
    {
     "title": "Optional ungraded challenge (recommended)",
     "id": "ecfc7715-5446-2b9a-7d14-485479b635e3",
     "type": "section",
     "children": []
    },
    {
     "title": "Challenge",
     "id": "e71fdadf-1f34-8ad1-807d-27e08cc35c97",
     "type": "section",
     "children": [
      {
       "title": "Q1 - Which are propositions?",
       "id": "7e8eaeaf-7c9a-2e20-0533-acf6e257f5f0",
       "type": "page",
       "pageId": "e93326dc-8502-d205-f4bb-4d7aa40e8368"
      },
      {
       "title": "Q2 - Translate to Propositional Logic",
       "id": "111a56ca-f172-0f8b-ef4d-e681eec9b45f",
       "type": "page",
       "pageId": "bfa6cdda-4449-8a8e-1615-457e41b87965"
      },
      {
       "title": "Q3- Proof logical equivalence",
       "id": "46c71aee-c163-9808-dd4f-e8c7967bbba3",
       "type": "page",
       "pageId": "2a6f7f37-ba42-165d-b679-075252f26ac9"
      },
      {
       "title": "Q4- Proof of tautologies",
       "id": "e04cf145-4af5-f267-56f9-20f434bd1a3a",
       "type": "page",
       "pageId": "857febba-60a5-f7ce-e938-5550ef5ed5c4"
      },
      {
       "title": "Q5- Proof of contradictions",
       "id": "29883d6e-2b59-1314-8f6b-f48ff1e6ff27",
       "type": "page",
       "pageId": "d61c34da-3b2f-1a48-ad75-b4992f7a55a2"
      },
      {
       "title": "Q6- Implication, converse etc.",
       "id": "c4686382-8bd0-16a7-b5f6-da10980429c7",
       "type": "page",
       "pageId": "08781d48-ab9c-b458-7aa1-ac9283772e51"
      },
      {
       "title": "Q7- More implication!",
       "id": "2e3f4473-e7cb-6da4-996d-0572a7d4590b",
       "type": "page",
       "pageId": "4cbd6266-90e2-67a8-ae38-1fe582a4cf7e"
      },
      {
       "title": "Q8- Valid inference rule?",
       "id": "548273da-47d9-aafd-ad39-6228deffe560",
       "type": "page",
       "pageId": "ff69d9ff-3543-04dd-0168-439957e9847d"
      },
      {
       "title": "Q9- Proof by inference",
       "id": "5c00c98a-bca3-6815-abd0-1fe691bc43a5",
       "type": "page",
       "pageId": "ce000e43-6196-7497-fd4a-b99302d25879"
      },
      {
       "title": "Q10- Predicate logic",
       "id": "aeb86176-b878-f07d-cc04-1310a685a6bd",
       "type": "page",
       "pageId": "88bb0bb9-ca6c-4317-78df-bd3b48be4ed1"
      }
     ]
    }
   ]
  },
  {
   "title": "HW03 - Proofs",
   "id": "fe0cef24-0364-3c0c-a5c5-38b19f9ac973",
   "type": "chapter",
   "children": []
  },
  {
   "title": "HW04 - Collections (Set Theory)",
   "id": "b2b6cd59-eaba-5f52-592f-ec6f3ccbb552",
   "type": "chapter",
   "children": []
  },
  {
   "title": "HW05 - Counting & Relations",
   "id": "484a895a-2994-00c9-e5d6-65c71111b3a9",
   "type": "chapter",
   "children": []
  },
  {
   "title": "HW06 - Proof++",
   "id": "ee311a26-32cc-0554-1d54-a441989b8652",
   "type": "chapter",
   "children": []
  },
  {
   "title": "HW07 - Functions",
   "id": "2fd457d7-d7b0-9828-8f68-328d12cded5e",
   "type": "chapter",
   "children": []
  },
  {
   "title": "HW08 - Graph theory",
   "id": "384faf89-bcf7-cf65-7db1-60aa0e311d4e",
   "type": "chapter",
   "children": []
  },
  {
   "title": "HW09 - Probability",
   "id": "5d03a22c-fd83-ecfd-e715-d363cf58cabd",
   "type": "chapter",
   "children": []
  },
  {
   "title": "HW10 - Number theory",
   "id": "8b6de1e4-2e6b-9392-2b88-3b464a47233b",
   "type": "chapter",
   "children": []
  }
 ]
}